{
  "image": "Image",
  "withGarage": "With garage",
  "application": "Application",
  "success": "Success",
  "request": "повторить попытку",
  "video": "Video",
  "empty_garage": "Склад пустой",
  "GROUP": "Группа",
  "SUBGROUP": "Субгруппа",
  "CoastMeasure": "Ед. изм.",
  "SearchCounterparity": "Поиск по контрагентам",
  "SearchByAgentGarage": "Поиск по номенклатуре",
  "ADDEDGARAGEPOSITION": "Добавление товарной позиции",
  "confirm_payment": "Подвердите выставление счета",
  "master": "Вход для мастеров",
  "admin": "Вход для управляющих",
  "NEWGOODSTASK": "Новая номенклатура",
  "repeat": "Восстановить сессию",
  "TaskWork": "Repair",
  "registration": "Регистрация",
  "welcome": "Добро Пожаловать",
  "ShowAndPrint": "Saw document",
  "Share": "Share",
  "dontforget": "Reason for applying",
  "AddedPayement": "AddedPayement",
  "edit": "ред.",
  "whatPreview": "Describe what problem the client came with",
  "listAgent": "contractors",
  "searchAgent": "Find a counterparty",
  "nameAgent": "By name",
  "innAgent": "Tin",
  "ByAgent": "Number",
  "typeAgent": "Counterparty type",
  "welcomeAgent": "Welcome to a quick registration.",
  "totalAgent": "counterparty card",
  "descAgent": "You can quickly register a counterparty and fix it at any other time.",
  "nameByAgent": "Name",
  "works": "Works",
  "addedMaterial": "Adding consumables parts",
  "material": "spare parts",
  "numberType": "Position",
  "Conclution": "Reconciliation",
  "Recompomition": "Recommendations",
  "Mistake": "Content",
  "type": "Type",
  "category": "Categoria",
  "priceAnd": "unit coast",
  "StatusUpdate": "STATUSES EXPLANATION",
  "Material/Coast": "PARTS / CONSUMABLES",
  "PermissionMaterial": "Specify the manufacturer of spare parts",
  "AddedPerformer": "Executive Select",
  "AddedOwner": "Adding Owner",
  "AddedClient": "Add customer",
  "succesAddedTask": "Order outfit successfully changed",
  "DC": "Peorder",
  "CD": "Service inspection report",
  "HD": "Operating workshop order",
  "GX": "Available with status 'Closed'",
  "IC": "\nWork completion statement",
  "status": "status",
  "innByAgent": "Tin",
  "shortByAgent": "Description",
  "phoneByAgent": "Phone",
  "not_found": "Data not found",
  "emailByAgent": "E-mail",
  "coast": "Total",
  "MyWork": "My Work",
  "psrn": "psrn",
  "kpp": "Kpp",
  "article": "article",
  "NEXT": "Next",
  "brand": "Brand",
  "oem": "original article",
  "ADDEDACTION": "add item",
  "ADDEDCARS": "add car",
  "search_vin": "Search by VIN",
  "search_plate": "Search by plate",
  "search_frameNumber": "Search by frameNumber",
  "EDITCARS": " edit car",
  "indexByAgent": "Postal code",
  "regionByAgent": "Region",
  "legalName": "Name organization",
  "ADDEDS": "Save",
  "nameSto": "Name service station",
  "phoneSto": "Contact phone number",
  "coastTime": "Cost per hour",
  "coastSto": "margin on spare parts,%",
  "cityByAgent": "City",
  "streetsByAgent": "Street",
  "EDIT": "Edit",
  "AddedBankTax": "Add current account",
  "houseByAgent": "House",
  "DEFAULT": "Use by default",
  "SAVE": "SAVE",
  "registrationAddress": "Registration address",
  "legalAddress": "Legal address",
  "physicalAddress": "Physical address",
  "ADRESS_ADD": "SET Address",
  "CLOSED": "close",
  "UPDATE": "Change",
  "Adress_not_found": "Address not specified",
  "rcbic": "SWIFT code ",
  "currentAccount": "Current account",
  "correspondentAccount": "Correspondent account",
  "ADDRESS": "Address",
  "BANK": "Bank details",
  "LEGAL_ENTITY": "Legal entities",
  "LEGAL_ENTITIES": "Legal entity",
  "INDIVIDUAL": "Individuals",
  "SOLE_TRADER": "Sole traders",
  "ALL": "Choose contractor",
  "CREATECONTRAGENT": "New counterparity",
  "UPDATECONTRAGENT": "Edit contractor",
  "ListContAgent": "counterparty",
  "COUNTREPARITY": "All",
  "INN": "INN",
  "ID": "Room",
  "certificateNumber": "Certificate",
  "certificateDate": "Date of certificate",
  "personalData": "Passport data",
  "psrnsp": "Evidence",
  "": "Select document type",
  "INDATAADRESS": "Set",
  "MYPAY": "My Invoices",
  "UnSuccessPay": "Not payed",
  "SuccessPay": "paid",
  "Payment_Bill": "Invoice",
  "Activate": "Activate promo code",
  "DatterService": "These car services",
  "from": "from",
  "masters": "Users",
  "LOGIN": "Send sms Code",
  "AUTH": "Log in",
  "sms": "SMS code",
  "masterPlaceHolder": "Search information",
  "phone": "Phone",
  "first": "First name",
  "last": "Last name",
  "role": "Role",
  "new_masters": "new user",
  "edit_masters": "edit user",
  "AppLoader": "Application download",
  "SearchDataModel": "Search ",
  "middle": "Middle name",
  "AddingParts": "Adding parts",
  "EditingParts": "Editing parts",
  "ACTOR": "ACTOR",
  "#": "#",
  "Update": "Update app",
  "q": "Current",
  "through": "through",
  "client": "Client",
  "ResendSms": "Send SMS code",
  "Catalog": "Catalog parts",
  "SearchInGarage": "SearchinGarage",
  "description": "Description",
  "Description": "Reason for visit",
  "PROMOPAY": "promotional code",
  "ADDED": "Create",
  "invavidSms": "Invalid SMS code",
  "invalidPhone": "Invalid phone number",
  "ListEmployee": "List of employees",
  "BLOCK": "In reserve",
  "BLOCKED": "Block user",
  "DESTROY": "Delete",
  "UNBLOCK": "block user",
  "masterCreateUser": "Create a new wizard",
  "FILTER": "FILTER",
  "goBack": "Main menu",
  "updateEdit": "Apply",
  "headerMasterEdit": "Edit the wizard",
  "cancelBack": "CANCEL AND GO BACK TO THE LIST",
  "ADD": "Add",
  "garage": "garage",
  "MASTER": "Master Receiver",
  "DIRECTOR": "DIRECTOR",
  "num": "#",
  "createdAt": "creation date",
  "email": "E-mail",
  "inn": "Inn",
  "Settings": "Settings",
  "Postupload": "Posts loading",
  "BronePost": "Brone",
  "PostTimeupload": "Post Time",
  "Post": "Planirovanie",
  "REMONT": "repair services",
  "SETTINGS": "settings",
  "AutoService": "Autoservice",
  "PostRemont": "Workshop bays",
  "Tariff": "My tariff",
  "CREATE": "Create",
  "EDIT_DEPOTS": "Warehouse Editing",
  "naiming": "Name",
  "Tech": "Technical support",
  "HelpDesk": "Help",
  "HELP": "Help",
  "NEW": "New",
  "PROFILE": "My profile",
  "ConnectedSystem": "System access",
  "Pay": "Pay",
  "LOGOUT": "Log out",
  "EndedPay": "Ends at",
  "DiffPay": "Time left",
  "nal": "Issue an invoice",
  "pay": "Bank card",
  "VarianPay": "Payment options",
  "6mounth-PROMO": "Access to the system for 6 months using a promo code",
  "1mounth": "Access to the system for 1 month.",
  "6mounth": "Access to the system for 6 months.",
  "12mounth": "Access to the system for 12 months.",
  "1year": "Access to the system for 1 year",
  "12mounth-PROMO": "Access to the system for 12 months.",
  "14day-TESTDRIVE": "Test access for 14 days",
  "paymentAmount": "fully payed :",
  "amountPayable": "total :",
  "SKLAD": "stock",
  "startAt": "Start at",
  "endAt": "End at",
  "NameAction": "Nomenclature",
  "tax": "Tax, %",
  "PriceBuy": "Purchase Price (including VAT)",
  "PriceBuy1": "Purchase Price",
  "AddedContr": "Added contragents",
  "ADDContr": "contragent",
  "ADDGoods": "Heading",
  "TextVersion1": "You can try to find vehicle by VIN or plate number in your vehicles database",
  "TextVersion2": "Or add a new one if you are sure that this vehicle is not in your database",
  "TextVersion3": "OR",
  "SNAP": "Snapshot",
  "UPLOAD": "Upload",
  "Total": "Total",
  "TotalAccount": "total amount :",
  "AutoServices": "Car service",
  "invoice": "Invoice",
  "FindParts": "Find Parts",
  "inNal": "In stock",
  "Sales": "Sales",
  "CoastIn": "Purchase price",
  "CoastOut": "Selling price",
  "BACK": "Back",
  "COAST": "Next",
  "SELECTTASK": "CHOOSE AN ORDER",
  "BuySystem": "Purchase system access",
  "PeriodEditor": "Choose a period of access to the system",
  "EDIT_NAME": "edit",
  "ArticleSearch": "Enter the part number in the search field and press ENTER. It is possible that the data provider returns an empty list by the requested article number.",
  "LabelNextAgent": "To generate an account, the data listed below is required. Check the correctness of their filling and click 'Next'",
  "receiving_and_issuing": "Reception and issue of cars",
  "general_with_lift": "General repair (lift)",
  "wheel_alignment": "Wheel alignment",
  "unit_repair": "Repair of components and assemblies",
  "tire_fitting": "Tire service",
  "Filter": "Filter",
  "Apply": "Apply",
  "Reset": "Reset",
  "electrician": "Electrician",
  "diagnostic": "Diagnostics",
  "waiting": "Waiting",
  "car_storage": "Car storage",
  "car_wash": "Washing",
  "additional_equipment_and_tuning": "Installation of add. equipment and tuning",
  "locksmith_repair": "Locksmith repair",
  "bodyshop": "Paint and Body shop",
  "state_technical_inspection_line": "State technical inspection line",
  "preparation": "Preparation",
  "disassembly_assembly": "Disassembly / assembly",
  "reinforcing": "Reinforcing workshop bay",
  "slipway": "Construction work",
  "car_coloring": "Coloring",
  "lcp_preparation": "LCP preparation",
  "welding": "Welding post",
  "braking_force": "Brake force stand",
  "shock_absorber_test": "Shock absorber test stand",
  "exhaust_emission_test": "Exhaust emissions test",
  "ListClients": "clients",
  "NAME": "Name",
  "LAST": "Surname",
  "PHONE": "Phone",
  "FRAMENUMBER": "License plate",
  "ADDED_NEW": "Create new",
  "ListWork": "workshop orders",
  "AllWork": "All",
  "preorder": "Preliminary",
  "inWork": "In progress",
  "completed": "Completed",
  "closed": "Closed",
  "reconciliation": "Reconciliation",
  "suspended": "Pause",
  "NewPostUpload": "NEW WORKSHOP BAY",
  "EditPostUpload": "Edit WORKSHOP BAY",
  "preorderDesc": "The stage of initial filling of the workshop order. Same as Draft.",
  "inWorkDesc": "The car has entered the service area and the necessary work has already been started.",
  "completedDesc": "The services on the workshop order has been completed, the car has left the service area and is waiting for the customer. Payment of the work order has NOT been made.",
  "closedDesc": "The workshop order is paid in full. The car has been transferred to the customer.",
  "reconciliationDesc": "During the car repair process, some circumstances have become clear that require approval from the customer and pause the car repair process.",
  "suspendedDesc": "Car repair is suspended due to some reasons that do not require agreement with the client (for example, waiting for spare parts).",
  "canceledDesc": "The client refused to repair, changed his mind or other reasons, meaning that the car will not be repaired.",
  "canceled": "Canceled",
  "VIN": "VIN",
  "PLATE": "Plate",
  "address": "Legal address",
  "bankName": "Name of the bank",
  "checkingAccount": "Checking account",
  "billPaymentLabel": "Select system access period",
  "PAY": "Next",
  "AGREE": "Agree",
  "PERSONALPOLICY": "PERSONAL DATA PROCESSING POLICY",
  "POLICYORGANIZATION": "PERSONAL DATA PROCESSING POLICY",
  "CreateTask": "Order Outfit",
  "vin": "VIN",
  "ownerPhone": "Room",
  "FindTaskCar": "Car Found",
  "FindByVIN": "Vehicle found by VIN number",
  "FindByPLATE": "Found car according to the State Sign",
  "NewTaskCars": "new order outfit",
  "EditTaskCars": "edit order outfit",
  "searchByEmployee": "Find by phone",
  "author": "Order author",
  "clients": "Persons of the owner",
  "performer": "Order executor",
  "owner": "Owner",
  "added": "Add",
  "searchByOwner": "Full text search",
  "km": "km",
  "ADDPAY": "Add payment",
  "promo": "Promo code",
  "APPLY": "apply",
  "frameNumber": "Body №",
  "ListCars": "Vehicles",
  "ListCar": "Vehicle",
  "CLIENTS": "Clients",
  "GARAGE": "Warehouse",
  "Current": "Availability",
  "Reserved": "In reserve",
  "Received": "Acceptance",
  "actor": "Accepted",
  "document": "Documents",
  "Task": "Order Outfits",
  "position": "Headings",
  "org": "Organization",
  "MmileageHistory": "MILEAGE HISTORY",
  "GARAGES": "Garage",
  "CREATEGARAGE": "Create garage",
  "NEWGARAGE": "New garage",
  "ADDEDGARAGESTOCK": "Новая приемка от",
  "EDITGARAGESTOCK": "Приемка от",
  "ADDEDINGARAGE": "ПРИНЯТЬ ТОВАР НА СКЛАД",
  "GARAGEOPERATION": "Warehouse operations",
  "GOODADDGARAGE": "Acceptance",
  "ANOTHER": "Other",
  "DATA": "Date",
  "SEARCHGOODS": "Search goods",
  "year": "Year",
  "plate": "Plate №",
  "color": "Colour",
  "vehicleModels": "Model",
  "vehicleModifications": "Modification",
  "vehicleManufacturers": "Manufacture",
  "mileage": "Mileage",
  "ListClientsCars": "Cars",
  "CatalogWork": "Catalog of works",
  "WORK": "Choose a job",
  "originalPrice": "Wholesale price",
  "totalPrice": "Retail price",
  "CustomLite": "Choose from",
  "BuildLite": "Calculate",
  "action": "Type of work",
  "discount": "Prices are inclusive of a discount of",
  "unitCount": "Amount",
  "name": "Name",
  "unitPrice": "Unit price",
  "qty": "Amount",
  "pricePerHour": "Price / hour",
  "timeHrs": "Time, hours",
  "discountPersent": "A discount %",
  "discountCoast": "Discount in rubles",
  "EDITWORK": "Edit work",
  "CREATEWORK": "Create a job",
  "WORKSELF": "Own work",
  "ALLWORK": "All works",
  "FORTHISCAR": "For this modification",
  "MYALLWORK": "All my work",
  "pendingPay": "PENDING",
  "succeededPay": "SUCCEDED",
  "waitingPay": "WAiTING",
  "canceledPay": "CANCELED",
  "falsePay": "No data to display",
  "paymentPay": "Payments",
  "NEW_ListWork": "New service",
  "TaskWorks": "Workshop orders",
  "ContactPhone": "Contact phone",
  "copy": "copy",
  "DELETEALERT": "Are you sure you want to confirm this action?",
  "P": "Petrol",
  "PT": "Petrol (turbo)",
  "D": "Diesel",
  "DT": "Diesel (turbo)",
  "fuel": "engine code",
  "Clients": "clients",
  "Cancel": "Cancel",
  "Yes": "Yes",
  "HeaderAlert": "Confirm action",
  "destroy_employee": "Are you sure you want to delete this user?",
  "destroy_contragent": "Are you sure you want to delete this counterparty?",
  "destroy_bankDetail": "Are you sure you want to delete your bank details?",
  "destroy_docs": "Are you sure you want to delete this document?",
  "destroy_repair_part": "Are you sure you want to remove the spare part?",
  "destroy_part": "Are you sure you want to remove the main spare part?",
  "destroy_post": "Are you sure you want to delete this repair post?",
  "destroy_works": "Are you sure you want to refuse this service?",
  "destroy_garage": "Are you sure you want to delete this warehouse?",
  "Share File": "Share",
  "Reset File": "Reset",
  "Print File": "Print",
  "PolicyAddCheck": "Client is familiar with Personal data processing policy  and   agree to the processing of personal data",
  "DELETESTATUSTASK": "Are you sure you want to change the status of the order?",
  "I_Agree": "I agree",
  "Personal_policy": "Personal data processing policy",
  "Processing_data": "Processing of personal data",
  "Read_Data_Confirm": "Read and click that you are in accordance with the rules.",
  "ADDEDNEWCAR": "Add a new car with",
  "SEARCHBYLIST": "List search ...",
  "Note": "RECOMMENDATIONS",
  "Employeers": "Участники",
  "DescribeTask": "Опишите, с какой проблемой приехал клиент",
  "notname": "Not specified name",
  "notphone": "Phone number not specified",
  "notemail": "Email not specified",
  "notcostPerHour": "Hourly not specified",
  "notcheckingAccount": "Bank account not specified",
  "notcorrespondentAccount": "No correspondent account specified",
  "notrcbic": "Bank Bik not specified",
  "notinn": "Inn is not specified",
  "notkpp": "Organization checkpoint not specified",
  "notpsrn": "OGRN not specified",
  "notdefaultPartSurcharge": "Discount price not specified",
  "nottype": "Legal entity type not specified",
  "notmanufacture": "Vehicle type not specified",
  "notmodels": "Vehicle model not specified",
  "notmodification": "Vehicle modification not specified",
  "notyear": "Vehicle year not specified",
  "notplate": "State vehicle number not specified",
  "notvin": "Vehicle vin not specified",
  "notframeNumber": "Vehicle body number not specified",
  "notmileage": "Vehicle mileage not specified",
  "notName": "Name not specified",
  "notTimeHrs": "Not specified runtime",
  "notUnitPrice": "Unit price not specified",
  "notCount": "Quantity not specified",
  "CMT": "Сантиметр",
  "MTR": "Метр",
  "GRM": "Грамм",
  "KGM": "Килограмм",
  "LTR": "Литр",
  "MTK": "Квадратный метр",
  "CMK": "Квадратный сантиметр",
  "NMP": "Упаковка",
  "PCE": "Штука"
}
